{
  "project_info": {
    "project_number": "299877392430",
    "firebase_url": "https://wys-project-7576e-default-rtdb.europe-west1.firebasedatabase.app",
    "project_id": "wys-project-7576e",
    "storage_bucket": "wys-project-7576e.appspot.com"
  },
  "client": [
    {
      "client_info": {
        "mobilesdk_app_id": "1:299877392430:android:98e873a1c9ab9183b7ffbf",
        "android_client_info": {
          "package_name": "com.dosa.wys.musicrecognition"
        }
      },
      "oauth_client": [
        {
          "client_id": "299877392430-ovisb8ka7gsk4i7srbt6874ej8m40k0o.apps.googleusercontent.com",
          "client_type": 3
        }
      ],
      "api_key": [
        {
          "current_key": "AIzaSyD7Jef2RjzZeAjEjMzyn5ONZ84hcZIPCb4"
        }
      ],
      "services": {
        "appinvite_service": {
          "other_platform_oauth_client": [
            {
              "client_id": "299877392430-ovisb8ka7gsk4i7srbt6874ej8m40k0o.apps.googleusercontent.com",
              "client_type": 3
            }
          ]
        }
      }
    }
  ],
  "configuration_version": "1"
}